<svg xmlns="http://www.w3.org/2000/svg" width="1122.5" height="10.056" viewBox="0 0 1122.5 10.056">
  <g id="Group_242" data-name="Group 242" transform="translate(-976.332 -1826.194)">
    <rect id="Rectangle_98" data-name="Rectangle 98" width="57.75" height="9.806" transform="translate(976.332 1826.194)" fill="#13293d"/>
    <line id="Line_43" data-name="Line 43" x2="1122.125" transform="translate(976.707 1836)" fill="none" stroke="#13293d" stroke-width="0.5"/>
  </g>
</svg>
