{
    "name": "case-study-slider-two",
    "title": "Case Study Slider Two",
    "description": "A case study slider block",
    "category": "common",
    "mode":"preview",
    "supports": {
        "align": "true",
        "mode": "false",
        "jsx": "true"
    }
}