{
    "name": "content-block-five",
    "title": "Content Block Five",
    "description": "A customisable content block",
    "category": "common",
    "mode":"preview",
    "supports": {
        "align": "true",
        "mode": "false",
        "jsx": "true"
    }
}