<svg xmlns="http://www.w3.org/2000/svg" width="1196.191" height="94" viewBox="0 0 1196.191 94">
  <g id="Group_675" data-name="Group 675" transform="translate(-723.809 -739)">
    <g id="Group_18" data-name="Group 18" transform="translate(723.809 789.346)">
      <g id="Group_19" data-name="Group 19" transform="translate(0 -25.173)">
        <g id="Group_25" data-name="Group 25" transform="translate(0 43)">
          <g id="Group_15" data-name="Group 15" transform="translate(0 -3.173)">
            <path id="Path_22" data-name="Path 22" d="M0,0H1196.191" fill="none" stroke="#ebeeef" stroke-width="2"/>
          </g>
          <g id="Group_20" data-name="Group 20" transform="translate(0 -21.173)">
            <path id="Path_22-2" data-name="Path 22" d="M0,0H1196.191" fill="none" stroke="#ebeeef" stroke-width="2"/>
          </g>
          <g id="Group_21" data-name="Group 21" transform="translate(0 -12.173)">
            <path id="Path_22-3" data-name="Path 22" d="M0,0H1196.191" fill="none" stroke="#ebeeef" stroke-width="2"/>
          </g>
          <g id="Group_22" data-name="Group 22" transform="translate(0 6.827)">
            <path id="Path_22-4" data-name="Path 22" d="M0,0H1196.191" fill="none" stroke="#ebeeef" stroke-width="2"/>
          </g>
          <g id="Group_23" data-name="Group 23" transform="translate(0 15.827)">
            <path id="Path_22-5" data-name="Path 22" d="M0,0H1196.191" fill="none" stroke="#ebeeef" stroke-width="2"/>
          </g>
          <g id="Group_24" data-name="Group 24" transform="translate(0 24.827)">
            <path id="Path_22-6" data-name="Path 22" d="M0,0H1196.191" fill="none" stroke="#ebeeef" stroke-width="2"/>
          </g>
        </g>
      </g>
    </g>
    <g id="Group_31" data-name="Group 31" transform="translate(723.809 743.346)">
      <g id="Group_19-2" data-name="Group 19" transform="translate(0 -25.173)">
        <g id="Group_25-2" data-name="Group 25" transform="translate(0 43)">
          <g id="Group_15-2" data-name="Group 15" transform="translate(0 -3.173)">
            <path id="Path_22-7" data-name="Path 22" d="M0,0H1196.191" fill="none" stroke="#ebeeef" stroke-width="2"/>
          </g>
          <g id="Group_20-2" data-name="Group 20" transform="translate(0 -21.173)">
            <path id="Path_22-8" data-name="Path 22" d="M0,0H1196.191" fill="none" stroke="#ebeeef" stroke-width="2"/>
          </g>
          <g id="Group_21-2" data-name="Group 21" transform="translate(0 -12.173)">
            <path id="Path_22-9" data-name="Path 22" d="M0,0H1196.191" fill="none" stroke="#ebeeef" stroke-width="2"/>
          </g>
          <g id="Group_22-2" data-name="Group 22" transform="translate(0 6.827)">
            <path id="Path_22-10" data-name="Path 22" d="M0,0H1196.191" fill="none" stroke="#ebeeef" stroke-width="2"/>
          </g>
          <g id="Group_23-2" data-name="Group 23" transform="translate(0 15.827)">
            <path id="Path_22-11" data-name="Path 22" d="M0,0H1196.191" fill="none" stroke="#ebeeef" stroke-width="2"/>
          </g>
          <g id="Group_24-2" data-name="Group 24" transform="translate(0 24.827)">
            <path id="Path_22-12" data-name="Path 22" d="M0,0H1196.191" fill="none" stroke="#ebeeef" stroke-width="2"/>
          </g>
        </g>
      </g>
    </g>
  </g>
</svg>
