{
    "name": "footer-cta-one",
    "title": "Footer CTA One",
    "description": "A customisable content block",
    "category": "common",
    "mode":"preview",
    "supports": {
        "align": "true",
        "mode": "false",
        "jsx": "true"
    }
}