{
    "key": "group_628cdad7c9a45",
    "title": "Menu Helper",
    "fields": [
        {
            "key": "field_628cdaee2f27d",
            "label": "Open in",
            "name": "link_target",
            "type": "select",
            "instructions": "",
            "required": 0,
            "conditional_logic": 0,
            "wrapper": {
                "width": "",
                "class": "",
                "id": ""
            },
            "choices": {
                "_self": "Default",
                "_blank": "New Tab",
                "_parent": "Parent Frame",
                "_top": "New Window"
            },
            "default_value": "_self",
            "allow_null": 0,
            "multiple": 0,
            "max": "",
            "ui": 0,
            "return_format": "value",
            "prepend": "",
            "append": "",
            "acfe_field_group_condition": 0,
            "ajax": 0,
            "placeholder": ""
        }
    ],
    "location": [
        [
            {
                "param": "nav_menu_item",
                "operator": "==",
                "value": "all"
            }
        ]
    ],
    "menu_order": 0,
    "position": "normal",
    "style": "default",
    "label_placement": "left",
    "instruction_placement": "label",
    "hide_on_screen": "",
    "active": true,
    "description": "",
    "show_in_rest": 0,
    "acfe_autosync": [
        "json"
    ],
    "acfe_form": 0,
    "acfe_display_title": "",
    "acfe_meta": "",
    "acfe_note": "",
    "modified": 1653402884
}