{
    "key": "group_6257150e4e69e",
    "title": "Footer CTA One",
    "fields": [
        {
            "key": "field_62571519c562e",
            "label": "Content",
            "name": "content",
            "type": "wysiwyg",
            "instructions": "",
            "required": 0,
            "conditional_logic": 0,
            "wrapper": {
                "width": "",
                "class": "",
                "id": ""
            },
            "default_value": "",
            "tabs": "all",
            "toolbar": "full",
            "media_upload": 1,
            "delay": 0,
            "acfe_wysiwyg_height": 300,
            "acfe_wysiwyg_max_height": "",
            "acfe_wysiwyg_valid_elements": "",
            "acfe_wysiwyg_custom_style": "",
            "acfe_wysiwyg_disable_wp_style": 0,
            "acfe_wysiwyg_autoresize": 0,
            "acfe_wysiwyg_disable_resize": 0,
            "acfe_wysiwyg_remove_path": 0,
            "acfe_wysiwyg_menubar": 0,
            "acfe_wysiwyg_transparent": 0,
            "acfe_wysiwyg_merge_toolbar": 0,
            "acfe_wysiwyg_custom_toolbar": 0,
            "acfe_field_group_condition": 0
        },
        {
            "key": "field_625715d5d55c6",
            "label": "Phone Number",
            "name": "phone_number",
            "type": "group",
            "instructions": "",
            "required": 0,
            "conditional_logic": 0,
            "wrapper": {
                "width": "",
                "class": "",
                "id": ""
            },
            "layout": "block",
            "acfe_seamless_style": 0,
            "acfe_group_modal": 0,
            "acfe_field_group_condition": 0,
            "sub_fields": [
                {
                    "key": "field_625715e7d55c8",
                    "label": "Label",
                    "name": "label",
                    "type": "text",
                    "instructions": "",
                    "required": 0,
                    "conditional_logic": 0,
                    "wrapper": {
                        "width": "",
                        "class": "",
                        "id": ""
                    },
                    "default_value": "",
                    "placeholder": "",
                    "prepend": "",
                    "append": "",
                    "maxlength": "",
                    "acfe_field_group_condition": 0
                },
                {
                    "key": "field_625715ebd55c9",
                    "label": "Value",
                    "name": "value",
                    "type": "text",
                    "instructions": "",
                    "required": 0,
                    "conditional_logic": 0,
                    "wrapper": {
                        "width": "",
                        "class": "",
                        "id": ""
                    },
                    "default_value": "",
                    "placeholder": "",
                    "prepend": "",
                    "append": "",
                    "maxlength": "",
                    "acfe_field_group_condition": 0
                }
            ]
        },
        {
            "key": "field_6257437b23038",
            "label": "Email",
            "name": "email",
            "type": "group",
            "instructions": "",
            "required": 0,
            "conditional_logic": 0,
            "wrapper": {
                "width": "",
                "class": "",
                "id": ""
            },
            "layout": "block",
            "acfe_seamless_style": 0,
            "acfe_group_modal": 0,
            "acfe_field_group_condition": 0,
            "sub_fields": [
                {
                    "key": "field_6257437b23039",
                    "label": "Label",
                    "name": "label",
                    "type": "text",
                    "instructions": "",
                    "required": 0,
                    "conditional_logic": 0,
                    "wrapper": {
                        "width": "",
                        "class": "",
                        "id": ""
                    },
                    "acfe_field_group_condition": 0,
                    "required_message": "",
                    "default_value": "",
                    "placeholder": "",
                    "prepend": "",
                    "append": "",
                    "maxlength": ""
                },
                {
                    "key": "field_6257437b2303a",
                    "label": "Value",
                    "name": "value",
                    "type": "text",
                    "instructions": "",
                    "required": 0,
                    "conditional_logic": 0,
                    "wrapper": {
                        "width": "",
                        "class": "",
                        "id": ""
                    },
                    "acfe_field_group_condition": 0,
                    "required_message": "",
                    "default_value": "",
                    "placeholder": "",
                    "prepend": "",
                    "append": "",
                    "maxlength": ""
                }
            ]
        },
        {
            "key": "field_625715f3d55ca",
            "label": "Quote",
            "name": "quote",
            "type": "group",
            "instructions": "",
            "required": 0,
            "conditional_logic": 0,
            "wrapper": {
                "width": "",
                "class": "",
                "id": ""
            },
            "layout": "block",
            "acfe_seamless_style": 0,
            "acfe_group_modal": 0,
            "acfe_field_group_condition": 0,
            "sub_fields": [
                {
                    "key": "field_62571600d55cb",
                    "label": "Avatar",
                    "name": "avatar",
                    "type": "image",
                    "instructions": "",
                    "required": 0,
                    "conditional_logic": 0,
                    "wrapper": {
                        "width": "",
                        "class": "",
                        "id": ""
                    },
                    "uploader": "",
                    "acfe_thumbnail": 0,
                    "return_format": "array",
                    "preview_size": "medium",
                    "min_width": "",
                    "min_height": "",
                    "min_size": "",
                    "max_width": "",
                    "max_height": "",
                    "max_size": "",
                    "mime_types": "",
                    "acfe_field_group_condition": 0,
                    "library": "all"
                },
                {
                    "key": "field_6257161dd55cc",
                    "label": "Name",
                    "name": "name",
                    "type": "text",
                    "instructions": "",
                    "required": 0,
                    "conditional_logic": 0,
                    "wrapper": {
                        "width": "",
                        "class": "",
                        "id": ""
                    },
                    "default_value": "",
                    "placeholder": "",
                    "prepend": "",
                    "append": "",
                    "maxlength": "",
                    "acfe_field_group_condition": 0
                },
                {
                    "key": "field_62571d4cd55cd",
                    "label": "Content",
                    "name": "content",
                    "type": "text",
                    "instructions": "",
                    "required": 0,
                    "conditional_logic": 0,
                    "wrapper": {
                        "width": "",
                        "class": "",
                        "id": ""
                    },
                    "default_value": "",
                    "placeholder": "",
                    "prepend": "",
                    "append": "",
                    "maxlength": "",
                    "acfe_field_group_condition": 0
                }
            ]
        }
    ],
    "location": [
        [
            {
                "param": "block",
                "operator": "==",
                "value": "acf\/footer-cta-one"
            }
        ]
    ],
    "menu_order": 0,
    "position": "normal",
    "style": "default",
    "label_placement": "left",
    "instruction_placement": "label",
    "hide_on_screen": "",
    "active": true,
    "description": "",
    "show_in_rest": 0,
    "acfe_autosync": [
        "json"
    ],
    "acfe_form": 0,
    "acfe_display_title": "",
    "acfe_meta": "",
    "acfe_note": "",
    "modified": 1649919817
}