{
    "key": "group_62b54bb0951bb",
    "title": "Case Study Slider Two",
    "fields": [
        {
            "key": "field_62b54bb0972ea",
            "label": "Title",
            "name": "title",
            "type": "text",
            "instructions": "",
            "required": 0,
            "conditional_logic": 0,
            "wrapper": {
                "width": "",
                "class": "",
                "id": ""
            },
            "default_value": "",
            "placeholder": "",
            "prepend": "",
            "append": "",
            "maxlength": "",
            "acfe_field_group_condition": 0
        },
        {
            "key": "field_62b54bb097324",
            "label": "Content",
            "name": "content",
            "type": "wysiwyg",
            "instructions": "",
            "required": 0,
            "conditional_logic": 0,
            "wrapper": {
                "width": "",
                "class": "",
                "id": ""
            },
            "default_value": "",
            "tabs": "all",
            "toolbar": "full",
            "media_upload": 1,
            "delay": 0,
            "acfe_wysiwyg_height": 300,
            "acfe_wysiwyg_max_height": "",
            "acfe_wysiwyg_valid_elements": "",
            "acfe_wysiwyg_custom_style": "",
            "acfe_wysiwyg_disable_wp_style": 0,
            "acfe_wysiwyg_autoresize": 0,
            "acfe_wysiwyg_disable_resize": 0,
            "acfe_wysiwyg_remove_path": 0,
            "acfe_wysiwyg_menubar": 0,
            "acfe_wysiwyg_transparent": 0,
            "acfe_wysiwyg_merge_toolbar": 0,
            "acfe_wysiwyg_custom_toolbar": 0,
            "acfe_field_group_condition": 0
        },
        {
            "key": "field_62b551537cf52",
            "label": "Background Color",
            "name": "background_color",
            "type": "color_picker",
            "instructions": "",
            "required": 0,
            "conditional_logic": 0,
            "wrapper": {
                "width": "",
                "class": "",
                "id": ""
            },
            "default_value": "#13293d",
            "enable_opacity": 0,
            "return_format": "string",
            "display": "default",
            "button_label": "Select Color",
            "color_picker": 1,
            "absolute": 0,
            "input": 1,
            "allow_null": 1,
            "theme_colors": 0,
            "colors": [],
            "acfe_field_group_condition": 0
        },
        {
            "key": "field_62b551db5d0d3",
            "label": "Heading Color",
            "name": "heading_color",
            "type": "color_picker",
            "instructions": "",
            "required": 0,
            "conditional_logic": 0,
            "wrapper": {
                "width": "",
                "class": "",
                "id": ""
            },
            "default_value": "",
            "enable_opacity": 0,
            "return_format": "string",
            "display": "default",
            "button_label": "Select Color",
            "color_picker": 1,
            "absolute": 0,
            "input": 1,
            "allow_null": 1,
            "theme_colors": 0,
            "colors": [],
            "acfe_field_group_condition": 0
        }
    ],
    "location": [
        [
            {
                "param": "block",
                "operator": "==",
                "value": "acf\/case-study-slider-two"
            }
        ]
    ],
    "menu_order": 0,
    "position": "normal",
    "style": "default",
    "label_placement": "left",
    "instruction_placement": "label",
    "hide_on_screen": "",
    "active": true,
    "description": "",
    "show_in_rest": 0,
    "acfe_autosync": [
        "json"
    ],
    "acfe_form": 0,
    "acfe_display_title": "",
    "acfe_meta": "",
    "acfe_note": "",
    "modified": 1656050147
}