{
    "key": "group_628d22424f282",
    "title": "Content Block Six",
    "fields": [
        {
            "key": "field_628d224251a33",
            "label": "Content",
            "name": "content",
            "type": "wysiwyg",
            "instructions": "",
            "required": 0,
            "conditional_logic": 0,
            "wrapper": {
                "width": "",
                "class": "",
                "id": ""
            },
            "default_value": "",
            "tabs": "all",
            "toolbar": "full",
            "media_upload": 1,
            "delay": 0,
            "acfe_wysiwyg_height": 300,
            "acfe_wysiwyg_max_height": "",
            "acfe_wysiwyg_valid_elements": "",
            "acfe_wysiwyg_custom_style": "",
            "acfe_wysiwyg_disable_wp_style": 0,
            "acfe_wysiwyg_autoresize": 0,
            "acfe_wysiwyg_disable_resize": 0,
            "acfe_wysiwyg_remove_path": 0,
            "acfe_wysiwyg_menubar": 0,
            "acfe_wysiwyg_transparent": 0,
            "acfe_wysiwyg_merge_toolbar": 0,
            "acfe_wysiwyg_custom_toolbar": 0,
            "acfe_field_group_condition": 0
        },
        {
            "key": "field_628d224251a6c",
            "label": "Image",
            "name": "image",
            "type": "image",
            "instructions": "",
            "required": 0,
            "conditional_logic": 0,
            "wrapper": {
                "width": "",
                "class": "",
                "id": ""
            },
            "uploader": "",
            "acfe_thumbnail": 0,
            "return_format": "array",
            "preview_size": "medium",
            "min_width": "",
            "min_height": "",
            "min_size": "",
            "max_width": "",
            "max_height": "",
            "max_size": "",
            "mime_types": "",
            "acfe_field_group_condition": 0,
            "library": "all"
        },
        {
            "key": "field_628d24614d027",
            "label": "Background Type",
            "name": "background_type",
            "type": "select",
            "instructions": "",
            "required": 0,
            "conditional_logic": 0,
            "wrapper": {
                "width": "",
                "class": "",
                "id": ""
            },
            "choices": {
                "color": "Color",
                "gradient": "Gradient"
            },
            "default_value": false,
            "allow_null": 0,
            "multiple": 0,
            "max": "",
            "ui": 0,
            "return_format": "value",
            "prepend": "",
            "append": "",
            "acfe_field_group_condition": 0,
            "ajax": 0,
            "placeholder": ""
        },
        {
            "key": "field_628d247ab6432",
            "label": "Background Color",
            "name": "background_color",
            "type": "color_picker",
            "instructions": "",
            "required": 0,
            "conditional_logic": [
                [
                    {
                        "field": "field_628d24614d027",
                        "operator": "==",
                        "value": "color"
                    }
                ]
            ],
            "wrapper": {
                "width": "",
                "class": "",
                "id": ""
            },
            "default_value": "",
            "enable_opacity": 0,
            "return_format": "string",
            "display": "default",
            "button_label": "Select Color",
            "color_picker": 1,
            "absolute": 0,
            "input": 1,
            "allow_null": 1,
            "theme_colors": 0,
            "colors": [],
            "acfe_field_group_condition": 0
        },
        {
            "key": "field_628dee891837c",
            "label": "Heading Color",
            "name": "heading_color",
            "type": "color_picker",
            "instructions": "",
            "required": 0,
            "conditional_logic": 0,
            "wrapper": {
                "width": "",
                "class": "",
                "id": ""
            },
            "default_value": "",
            "enable_opacity": 0,
            "return_format": "string",
            "display": "default",
            "button_label": "Select Color",
            "color_picker": 1,
            "absolute": 0,
            "input": 1,
            "allow_null": 1,
            "theme_colors": 0,
            "colors": [],
            "acfe_field_group_condition": 0
        },
        {
            "key": "field_628dee901837d",
            "label": "Content Color",
            "name": "content_color",
            "type": "color_picker",
            "instructions": "",
            "required": 0,
            "conditional_logic": 0,
            "wrapper": {
                "width": "",
                "class": "",
                "id": ""
            },
            "default_value": "",
            "enable_opacity": 0,
            "return_format": "string",
            "display": "default",
            "button_label": "Select Color",
            "color_picker": 1,
            "absolute": 0,
            "input": 1,
            "allow_null": 1,
            "theme_colors": 0,
            "colors": [],
            "acfe_field_group_condition": 0
        }
    ],
    "location": [
        [
            {
                "param": "block",
                "operator": "==",
                "value": "acf\/content-block-six"
            }
        ]
    ],
    "menu_order": 0,
    "position": "normal",
    "style": "default",
    "label_placement": "left",
    "instruction_placement": "label",
    "hide_on_screen": "",
    "active": true,
    "description": "",
    "show_in_rest": 0,
    "acfe_autosync": [
        "json"
    ],
    "acfe_form": 0,
    "acfe_display_title": "",
    "acfe_meta": "",
    "acfe_note": "",
    "modified": 1653468822
}