<svg xmlns="http://www.w3.org/2000/svg" width="56.307" height="14.789" viewBox="0 0 56.307 14.789">
  <g id="Group_26" data-name="Group 26" transform="translate(-540.5 -510.105)">
    <line id="Line_2" data-name="Line 2" x2="56" transform="translate(540.5 517.5)" fill="none" stroke="#00aab1" stroke-width="1"/>
    <line id="Line_3" data-name="Line 3" x2="9" y2="7" transform="translate(587.5 510.5)" fill="none" stroke="#00aab1" stroke-width="1"/>
    <line id="Line_4" data-name="Line 4" x1="9" y2="7" transform="translate(587.5 517.5)" fill="none" stroke="#00aab1" stroke-width="1"/>
  </g>
</svg>
