<svg xmlns="http://www.w3.org/2000/svg" width="16.157" height="15.981" viewBox="0 0 16.157 15.981">
  <g id="Group_15" data-name="Group 15" transform="translate(-312.965 -192.022)">
    <g id="Group_14" data-name="Group 14">
      <path id="Path_8" data-name="Path 8" d="M314.957,192.022a1.992,1.992,0,1,0,1.992,1.992A1.992,1.992,0,0,0,314.957,192.022Z" fill="#fff"/>
      <rect id="Rectangle_35" data-name="Rectangle 35" width="3.354" height="10.598" transform="translate(313.28 197.405)" fill="#fff"/>
      <path id="Path_9" data-name="Path 9" d="M328.945,199.808a3.2,3.2,0,0,0-.99-1.891,3.448,3.448,0,0,0-2.414-.859c-2.734,0-3.523,1.606-3.523,1.606V197.4h-3.355V208h3.355v-5.928a1.968,1.968,0,0,1,2.029-2c1.839,0,1.719,2,1.719,2V208h3.354v-5.928A14.285,14.285,0,0,0,328.945,199.808Z" fill="#fff"/>
    </g>
  </g>
</svg>
