<svg xmlns="http://www.w3.org/2000/svg" width="20" height="34.4" viewBox="0 0 20 34.4">
  <path id="Polygon_7" data-name="Polygon 7" d="M17.2,0,34.4,20H0Z" transform="translate(0 34.4) rotate(-90)" fill="#00aab1"/>
</svg>
